<svg width="35" height="35" viewBox="0 0 35 35" fill="none" xmlns="http://www.w3.org/2000/svg">
    <path d="M29.872 5.12328C23.0369 -1.70986 11.9564 -1.70822 5.12328 5.12704C-1.70986 11.9623 -1.70822 23.0427 5.12704 29.8758C11.9623 36.7089 23.0427 36.7073 29.8758 29.872C33.1575 26.5893 35.0006 22.1374 34.9995 17.4958C34.9986 12.8549 33.1542 8.40439 29.872 5.12328ZM26.5027 24.3768C26.5019 24.3776 26.5012 24.3784 26.5003 24.3792V24.3733L25.6137 25.2542C24.4669 26.4154 22.7968 26.8931 21.2095 26.5142C19.6102 26.0861 18.0899 25.4047 16.7062 24.4958C15.4206 23.6742 14.2292 22.7138 13.1537 21.6317C12.164 20.6493 11.2749 19.5705 10.4995 18.4117C9.65127 17.1646 8.97991 15.8062 8.50447 14.375C7.95944 12.6936 8.41109 10.8486 9.67116 9.60916L10.7095 8.57084C10.9982 8.28086 11.4672 8.27984 11.7571 8.56852C11.7579 8.56927 11.7587 8.57002 11.7595 8.57084L15.0378 11.8492C15.3278 12.1378 15.3288 12.6069 15.0401 12.8968C15.0394 12.8976 15.0386 12.8983 15.0378 12.8992L13.1128 14.8242C12.5604 15.3705 12.491 16.2386 12.9495 16.8658C13.6457 17.8214 14.4162 18.7205 15.2537 19.555C16.1874 20.4928 17.2024 21.3458 18.287 22.1042C18.9136 22.5413 19.7632 22.4676 20.3053 21.9292L22.1661 20.0392C22.4548 19.7492 22.9239 19.7482 23.2138 20.0369C23.2145 20.0377 23.2153 20.0384 23.2161 20.0392L26.5003 23.3292C26.7903 23.6178 26.7914 24.0868 26.5027 24.3768Z" fill="#939393"/>
</svg>
