<?xml version="1.0" encoding="utf-8"?>
<!-- Generator: Adobe Illustrator 19.0.0, SVG Export Plug-In . SVG Version: 6.00 Build 0)  -->
<svg version="1.1" id="Слой_1" xmlns="http://www.w3.org/2000/svg" xmlns:xlink="http://www.w3.org/1999/xlink" x="0px" y="0px"
	 viewBox="0 0 66 66" style="enable-background:new 0 0 66 66;" xml:space="preserve">
<style type="text/css">
	.st0{clip-path:url(#SVGID_2_);fill:#FFFFFF;}
	.st1{clip-path:url(#SVGID_2_);fill:none;stroke:#FFFFFF;stroke-width:8.5039;stroke-miterlimit:10;}
</style>
<g>
	<defs>
		<rect id="SVGID_1_" width="66" height="66"/>
	</defs>
	<clipPath id="SVGID_2_">
		<use xlink:href="#SVGID_1_"  style="overflow:visible;"/>
	</clipPath>
	<path class="st0" d="M32.156,21.691c-2.203-0.023-4.078,0-5.133,0.516c-0.703,0.34-1.242,1.113-0.914,1.148
		c0.411,0.059,1.336,0.258,1.829,0.926c0.632,0.856,0.609,2.789,0.609,2.789s0.351,5.321-0.856,5.989
		c-0.832,0.457-1.968-0.469-4.429-4.7c-1.254-2.179-2.203-4.582-2.203-4.582s-0.176-0.445-0.504-0.679
		c-0.399-0.293-0.95-0.387-0.95-0.387l-5.871,0.035c0,0-0.879,0.035-1.195,0.41c-0.293,0.352-0.023,1.043-0.023,1.043
		s4.593,10.746,9.797,16.16C27.082,45.328,32.496,45,32.496,45h2.461c0,0,0.738-0.082,1.113-0.48c0.352-0.375,0.34-1.079,0.34-1.079
		s-0.047-3.293,1.477-3.785c1.511-0.468,3.433,3.188,5.484,4.594c1.559,1.066,2.742,0.832,2.742,0.832L51.598,45
		c0,0,2.859-0.176,1.5-2.437c-0.106-0.176-0.785-1.665-4.067-4.711c-3.445-3.188-2.988-2.672,1.16-8.192
		c2.52-3.363,3.528-5.414,3.211-6.305c-0.304-0.832-2.156-0.609-2.156-0.609l-6.176,0.035c0,0-0.457-0.058-0.797,0.141
		c-0.328,0.199-0.539,0.668-0.539,0.668s-0.984,2.601-2.285,4.816c-2.742,4.664-3.855,4.922-4.301,4.629
		c-1.043-0.68-0.785-2.719-0.785-4.16c0-4.535,0.692-6.41-1.336-6.902C34.359,21.809,33.867,21.703,32.156,21.691"/>
	<rect class="st1" width="66" height="66"/>
</g>
</svg>
