<svg version="1.1" id="Слой_1" xmlns="http://www.w3.org/2000/svg" xmlns:xlink="http://www.w3.org/1999/xlink" x="0px" y="0px"
	 viewBox="0 0 50 46" style="enable-background:new 0 0 50 46;" xml:space="preserve">
<path fill="#fff" d="M50,1c0-0.55-0.45-1-1-1H12c0,0-0.01,0-0.01,0c-0.12,0-0.23,0.03-0.34,0.07c-0.03,0.01-0.05,0.02-0.08,0.04
	c-0.03,0.02-0.07,0.03-0.1,0.05l-11,7C0.17,7.34,0,7.66,0,8v37c0,0.09,0.01,0.19,0.04,0.27c0,0,0,0,0,0.01
	c0,0.01,0.01,0.02,0.02,0.03c0.03,0.08,0.06,0.16,0.11,0.23c0.02,0.03,0.04,0.05,0.06,0.08c0.04,0.05,0.08,0.1,0.13,0.14
	c0.03,0.02,0.06,0.05,0.09,0.07c0.02,0.02,0.04,0.04,0.07,0.05c0.03,0.02,0.07,0.03,0.11,0.04c0.03,0.01,0.06,0.03,0.09,0.03
	C0.81,45.98,0.9,46,1,46h37c0.19,0,0.38-0.05,0.54-0.16l11-7c0.04-0.02,0.07-0.06,0.1-0.09c0.03-0.03,0.07-0.05,0.1-0.09
	c0.06-0.07,0.11-0.14,0.15-0.22c0.01-0.03,0.03-0.05,0.05-0.08c0.05-0.11,0.07-0.23,0.07-0.35c0-0.01,0-0.01,0-0.02V1z M48,37H13V2
	h35V37z M11,2.82v34.63l-9,5.73V8.55L11,2.82z M37.71,44H4.43l7.86-5h33.27L37.71,44z M18,33h25c0.55,0,1-0.45,1-1V7
	c0-0.55-0.45-1-1-1H18c-0.55,0-1,0.45-1,1v25C17,32.55,17.45,33,18,33z M19,20h6v11h-6V20z M34,20v11h-7V20H34z M27,18V8h7v10H27z
	 M36,31V20h6v11H36z M42,18h-6V8h6V18z M25,8v10h-6V8H25z"/>
</svg>
