<?xml version="1.0" encoding="utf-8"?>
<!-- Generator: Adobe Illustrator 18.1.1, SVG Export Plug-In . SVG Version: 6.00 Build 0)  -->
<svg version="1.1" id="Слой_1" xmlns="http://www.w3.org/2000/svg" xmlns:xlink="http://www.w3.org/1999/xlink" x="0px" y="0px"
	 viewBox="0 0 171.3 187" enable-background="new 0 0 171.3 187" xml:space="preserve">
<polygon fill="#B41836" points="171.3,187 119.1,144 0,144 0,0 171.3,0 "/>
<path fill="#FFFFFF" d="M120.8,33.8V16.4h-104v110.4h104l28.5-17.4V33.8H120.8z M144.3,38.8v65.6h-23.5V38.8H144.3z M115.8,104.4
	H50.2V38.8h65.6V104.4z M115.8,33.8H48.4L28.1,21.4h87.7V33.8z M21.7,121.8V23.3l23.5,14.4v71.7h70.6v12.4H21.7z M120.8,121v-11.6
	h18.9L120.8,121z M84.5,78.7c0-3-2.6-3.5-8.7-4.9c-6.3-1.4-11.2-3.1-11.2-9.2c0-6.4,5.7-9.8,11.9-9.8c8.1,0,11.9,4.2,12.8,9.3H84
	c-0.9-2.7-3.1-4.4-7.5-4.4c-4.3,0-6.7,1.9-6.7,4.8c0,2.3,1.9,3.1,7.2,4.2c8.2,1.8,12.7,3.5,12.7,9.8c0,7.1-6.3,9.9-12.1,9.9
	c-9.1,0-13-5-13.9-10.6H69c1,3.7,3.5,5.7,8.6,5.7C82,83.4,84.5,81.7,84.5,78.7z M105.7,70.3H91.5v-6.4c0,0,0,0,6.5-2.4
	c2.8-1.1,3.2-1.9,3.2-3.1c0-1.3-0.9-2.1-2.5-2.1c-1.7,0-2.8,0.9-3,3h-4.1c0.3-3.3,2.7-6.1,7.3-6.1c4.5,0,6.6,2.7,6.6,5.4
	c0,3.3-2.6,4.6-5.8,5.7c-4,1.4-4,1.4-4,1.4V67h10.3V70.3z"/>
</svg>
